%!PS-Adobe-2.0 EPSF-2.0
%%Title: parse_tree.eps
%%Creator: fig2dev Version 3.2 Patchlevel 3d
%%CreationDate: Wed Feb  4 19:02:20 2004
%%For: rada@ix (Rada Mihalcea)
%%BoundingBox: 0 0 416 195
%%Magnification: 1.0000
%%EndComments
/$F2psDict 200 dict def
$F2psDict begin
$F2psDict /mtrx matrix put
/col-1 {0 setgray} bind def
/col0 {0.000 0.000 0.000 srgb} bind def
/col1 {0.000 0.000 1.000 srgb} bind def
/col2 {0.000 1.000 0.000 srgb} bind def
/col3 {0.000 1.000 1.000 srgb} bind def
/col4 {1.000 0.000 0.000 srgb} bind def
/col5 {1.000 0.000 1.000 srgb} bind def
/col6 {1.000 1.000 0.000 srgb} bind def
/col7 {1.000 1.000 1.000 srgb} bind def
/col8 {0.000 0.000 0.560 srgb} bind def
/col9 {0.000 0.000 0.690 srgb} bind def
/col10 {0.000 0.000 0.820 srgb} bind def
/col11 {0.530 0.810 1.000 srgb} bind def
/col12 {0.000 0.560 0.000 srgb} bind def
/col13 {0.000 0.690 0.000 srgb} bind def
/col14 {0.000 0.820 0.000 srgb} bind def
/col15 {0.000 0.560 0.560 srgb} bind def
/col16 {0.000 0.690 0.690 srgb} bind def
/col17 {0.000 0.820 0.820 srgb} bind def
/col18 {0.560 0.000 0.000 srgb} bind def
/col19 {0.690 0.000 0.000 srgb} bind def
/col20 {0.820 0.000 0.000 srgb} bind def
/col21 {0.560 0.000 0.560 srgb} bind def
/col22 {0.690 0.000 0.690 srgb} bind def
/col23 {0.820 0.000 0.820 srgb} bind def
/col24 {0.500 0.190 0.000 srgb} bind def
/col25 {0.630 0.250 0.000 srgb} bind def
/col26 {0.750 0.380 0.000 srgb} bind def
/col27 {1.000 0.500 0.500 srgb} bind def
/col28 {1.000 0.630 0.630 srgb} bind def
/col29 {1.000 0.750 0.750 srgb} bind def
/col30 {1.000 0.880 0.880 srgb} bind def
/col31 {1.000 0.840 0.000 srgb} bind def

end
save
newpath 0 195 moveto 0 0 lineto 416 0 lineto 416 195 lineto closepath clip newpath
-21.9 204.9 translate
1 -1 scale

/cp {closepath} bind def
/ef {eofill} bind def
/gr {grestore} bind def
/gs {gsave} bind def
/sa {save} bind def
/rs {restore} bind def
/l {lineto} bind def
/m {moveto} bind def
/rm {rmoveto} bind def
/n {newpath} bind def
/s {stroke} bind def
/sh {show} bind def
/slc {setlinecap} bind def
/slj {setlinejoin} bind def
/slw {setlinewidth} bind def
/srgb {setrgbcolor} bind def
/rot {rotate} bind def
/sc {scale} bind def
/sd {setdash} bind def
/ff {findfont} bind def
/sf {setfont} bind def
/scf {scalefont} bind def
/sw {stringwidth} bind def
/tr {translate} bind def
/tnt {dup dup currentrgbcolor
  4 -2 roll dup 1 exch sub 3 -1 roll mul add
  4 -2 roll dup 1 exch sub 3 -1 roll mul add
  4 -2 roll dup 1 exch sub 3 -1 roll mul add srgb}
  bind def
/shd {dup dup currentrgbcolor 4 -2 roll mul 4 -2 roll mul
  4 -2 roll mul srgb} bind def
/$F2psBegin {$F2psDict begin /$F2psEnteredState save def} def
/$F2psEnd {$F2psEnteredState restore end} def

$F2psBegin
10 setmiterlimit
0 slj 0 slc
 0.06299 0.06299 sc
%
% Fig objects follow
%
/Times-Bold ff 180.00 scf sf
3465 1845 m
gs 1 -1 sc (ingestion) col0 sh gr
/Times-Roman ff 180.00 scf sf
4185 1845 m
gs 1 -1 sc (\), [eat]) col0 sh gr
/Times-Roman ff 180.00 scf sf
2565 1845 m
gs 1 -1 sc (interaction\() col0 sh gr
% Polyline
7.500 slw
 [60] 0 sd
n 465 180 m 360 180 360 3135 105 arcto 4 {pop} repeat
  360 3240 6825 3240 105 arcto 4 {pop} repeat
  6930 3240 6930 285 105 arcto 4 {pop} repeat
  6930 180 465 180 105 arcto 4 {pop} repeat
 cp gs col0 s gr  [] 0 sd
% Polyline
gs  clippath
3120 1050 m 3180 1050 l 3180 899 l 3150 1019 l 3120 899 l cp
eoclip
n 3150 765 m
 3150 1035 l gs col0 s gr gr

% arrowhead
n 3120 899 m 3150 1019 l 3180 899 l 3120 899 l  cp gs 0.00 setgray ef gr  col0 s
% Polyline
gs  clippath
1148 1639 m 1162 1697 l 1309 1663 l 1186 1661 l 1296 1604 l cp
eoclip
n 3105 1215 m
 1170 1665 l gs col0 s gr gr

% arrowhead
n 1296 1604 m 1186 1661 l 1309 1663 l 1296 1604 l  cp gs 0.00 setgray ef gr  col0 s
% Polyline
gs  clippath
3075 1680 m 3135 1680 l 3135 1529 l 3105 1649 l 3075 1529 l cp
eoclip
n 3105 1260 m
 3105 1665 l gs col0 s gr gr

% arrowhead
n 3075 1529 m 3105 1649 l 3135 1529 l 3075 1529 l  cp gs 0.00 setgray ef gr  col0 s
% Polyline
gs  clippath
3480 2355 m 3540 2355 l 3540 2204 l 3510 2324 l 3480 2204 l cp
eoclip
n 3510 1935 m
 3510 2340 l gs col0 s gr gr

% arrowhead
n 3480 2204 m 3510 2324 l 3540 2204 l 3480 2204 l  cp gs 0.00 setgray ef gr  col0 s
% Polyline
 [60] 0 sd
gs  clippath
3480 2985 m 3540 2985 l 3540 2834 l 3510 2954 l 3480 2834 l cp
eoclip
n 3510 2610 m
 3510 2970 l gs col0 s gr gr
 [] 0 sd
% arrowhead
n 3480 2834 m 3510 2954 l 3540 2834 l 3480 2834 l  cp gs 0.00 setgray ef gr  col0 s
% Polyline
 [60] 0 sd
gs  clippath
2039 2010 m 2076 2057 l 2196 1965 l 2083 2015 l 2159 1917 l cp
eoclip
n 3060 1260 m
 2070 2025 l gs col0 s gr gr
 [] 0 sd
% arrowhead
n 2159 1917 m 2083 2015 l 2196 1965 l 2159 1917 l  cp gs 0.00 setgray ef gr  col0 s
% Polyline
 [60] 0 sd
gs  clippath
1140 2400 m 1200 2400 l 1200 2249 l 1170 2369 l 1140 2249 l cp
eoclip
n 1170 1890 m
 1170 2385 l gs col0 s gr gr
 [] 0 sd
% arrowhead
n 1140 2249 m 1170 2369 l 1200 2249 l 1140 2249 l  cp gs 0.00 setgray ef gr  col0 s
% Polyline
 [60] 0 sd
gs  clippath
5550 2310 m 5610 2310 l 5610 2159 l 5580 2279 l 5550 2159 l cp
eoclip
n 5580 1890 m
 5580 2295 l gs col0 s gr gr
 [] 0 sd
% arrowhead
n 5550 2159 m 5580 2279 l 5610 2159 l 5550 2159 l  cp gs 0.00 setgray ef gr  col0 s
% Polyline
 [60] 0 sd
gs  clippath
5634 1697 m 5645 1638 l 5496 1611 l 5609 1662 l 5485 1670 l cp
eoclip
n 3150 1215 m
 5625 1665 l gs col0 s gr gr
 [] 0 sd
% arrowhead
n 5485 1670 m 5609 1662 l 5496 1611 l 5485 1670 l  cp gs 0.00 setgray ef gr  col0 s
/Times-Italic ff 180.00 scf sf
585 405 m
gs 1 -1 sc (I love to eat Mexican food, because it is spicy.) col0 sh gr
/Times-Roman ff 180.00 scf sf
495 1800 m
gs 1 -1 sc ({[I], reference\(first\)}) col0 sh gr
/Times-Roman ff 180.00 scf sf
2700 720 m
gs 1 -1 sc (S'[assertion]) col0 sh gr
/Times-Roman ff 180.00 scf sf
1890 1170 m
gs 1 -1 sc (interaction\() col0 sh gr
/Times-Bold ff 180.00 scf sf
2790 1170 m
gs 1 -1 sc (experiencer_subj) col0 sh gr
/Times-Roman ff 180.00 scf sf
4185 1170 m
gs 1 -1 sc (\), [love]) col0 sh gr
/Times-Roman ff 180.00 scf sf
4995 1845 m
gs 1 -1 sc ({[it], reference\(third\)}) col0 sh gr
/Times-Roman ff 180.00 scf sf
1845 2205 m
gs 1 -1 sc (time\(present\)) col0 sh gr
/Times-Roman ff 180.00 scf sf
585 2520 m
gs 1 -1 sc (quantity\(single\)) col0 sh gr
/Times-Roman ff 180.00 scf sf
3285 2520 m
gs 1 -1 sc ({food}) col0 sh gr
/Times-Roman ff 180.00 scf sf
3150 3105 m
gs 1 -1 sc ({mexican}) col0 sh gr
/Times-Roman ff 180.00 scf sf
5085 2430 m
gs 1 -1 sc (taste_property\(spicy\)) col0 sh gr
/Times-Bold ff 180.00 scf sf
3645 2115 m
gs 1 -1 sc (ingestibles) col0 sh gr
/Times-Bold ff 180.00 scf sf
1080 1440 m
gs 1 -1 sc (experiencer) col0 sh gr
/Times-Bold ff 180.00 scf sf
3150 1530 m
gs 1 -1 sc (content) col0 sh gr
/Times-Bold ff 180.00 scf sf
4815 1440 m
gs 1 -1 sc (reason) col0 sh gr
/Times-Bold ff 180.00 scf sf
855 2115 m
gs 1 -1 sc (am) col0 sh gr
/Times-Bold ff 180.00 scf sf
5265 2070 m
gs 1 -1 sc (am ) col0 sh gr
/Times-Bold ff 180.00 scf sf
3240 2745 m
gs 1 -1 sc (sm ) col0 sh gr
/Times-Bold ff 180.00 scf sf
2250 1620 m
gs 1 -1 sc (am) col0 sh gr
$F2psEnd
rs
